<?xml version="1.0" encoding="UTF-8" standalone="no"?><svg xmlns="http://www.w3.org/2000/svg" xmlns:xlink="http://www.w3.org/1999/xlink" contentScriptType="application/ecmascript" contentStyleType="text/css" height="625px" preserveAspectRatio="none" style="width:545px;height:625px;background:#FFFFFF11;" version="1.1" viewBox="0 0 545 625" width="545px" zoomAndPan="magnify"><defs/><g><!--MD5=[461728697cef424d68b065574b1221fe]
cluster bordeaux--><rect fill="#FFFFFF" height="213" rx="5" ry="5" style="stroke:#000000;stroke-width:1.5;" width="152" x="7" y="193"/><line style="stroke:#000000;stroke-width:1.5;" x1="7" x2="159" y1="213.2969" y2="213.2969"/><text fill="#000000" font-family="sans-serif" font-size="14" font-weight="bold" lengthAdjust="spacing" textLength="75" x="45.5" y="207.9951">bordeaux</text><rect fill="#C9FFC9" height="178" style="stroke:#808080;stroke-width:1.5;" width="136" x="15" y="220"/><!--MD5=[f6fd388032ce058819dc14eabd184465]
cluster Rosny-sous-Bois--><rect fill="#FFFFFF" height="213" rx="5" ry="5" style="stroke:#000000;stroke-width:1.5;" width="152" x="386" y="7"/><line style="stroke:#000000;stroke-width:1.5;" x1="386" x2="538" y1="27.2969" y2="27.2969"/><text fill="#000000" font-family="sans-serif" font-size="14" font-weight="bold" lengthAdjust="spacing" textLength="131" x="396.5" y="21.9951">Rosny-sous-Bois</text><rect fill="#C9FFC9" height="178" style="stroke:#808080;stroke-width:1.5;" width="136" x="394" y="34"/><!--MD5=[8c619badf3269a7443626b025b17b50f]
cluster toulouse--><rect fill="#FFFFFF" height="213" rx="5" ry="5" style="stroke:#000000;stroke-width:1.5;" width="152" x="386" y="378"/><line style="stroke:#000000;stroke-width:1.5;" x1="386" x2="538" y1="398.2969" y2="398.2969"/><text fill="#000000" font-family="sans-serif" font-size="14" font-weight="bold" lengthAdjust="spacing" textLength="69" x="427.5" y="392.9951">toulouse</text><rect fill="#C9FFC9" height="178" style="stroke:#808080;stroke-width:1.5;" width="136" x="394" y="405"/><!--MD5=[93332a8572591d97ac3d7d93f487262b]
entity client1--><rect fill="#7FFF00" height="62.5938" rx="5" ry="5" style="stroke:#000000;stroke-width:1.5;" width="119" x="23.5" y="228.5"/><rect fill="#7FFF00" height="10" style="stroke:#000000;stroke-width:1.5;" width="15" x="122.5" y="233.5"/><rect fill="#7FFF00" height="2" style="stroke:#000000;stroke-width:1.5;" width="4" x="120.5" y="235.5"/><rect fill="#7FFF00" height="2" style="stroke:#000000;stroke-width:1.5;" width="4" x="120.5" y="239.5"/><text fill="#000000" font-family="sans-serif" font-size="14" lengthAdjust="spacing" textLength="0" x="42.5" y="261.4951"/><text fill="#000000" font-family="sans-serif" font-size="14" font-style="italic" lengthAdjust="spacing" textLength="75" x="42.5" y="261.4951">websocket</text><text fill="#000000" font-family="sans-serif" font-size="14" font-weight="bold" lengthAdjust="spacing" textLength="43" x="54.5" y="277.792">client</text><text fill="#000000" font-family="sans-serif" font-size="14" lengthAdjust="spacing" textLength="0" x="101.5" y="277.792"/><!--MD5=[66e0e2e999ee0dd4a03dafa42a76d5ef]
entity server1--><rect fill="#7FFF00" height="62.5938" rx="5" ry="5" style="stroke:#000000;stroke-width:1.5;" width="120" x="23" y="326.5"/><rect fill="#7FFF00" height="10" style="stroke:#000000;stroke-width:1.5;" width="15" x="123" y="331.5"/><rect fill="#7FFF00" height="2" style="stroke:#000000;stroke-width:1.5;" width="4" x="121" y="333.5"/><rect fill="#7FFF00" height="2" style="stroke:#000000;stroke-width:1.5;" width="4" x="121" y="337.5"/><text fill="#000000" font-family="sans-serif" font-size="14" lengthAdjust="spacing" textLength="76" x="42" y="359.4951">websocket</text><text fill="#000000" font-family="sans-serif" font-size="14" font-weight="bold" lengthAdjust="spacing" textLength="52" x="50" y="375.792">server</text><text fill="#000000" font-family="sans-serif" font-size="14" lengthAdjust="spacing" textLength="0" x="106" y="375.792"/><!--MD5=[8114dbb7027f683df91a35cf885956a2]
entity client2--><rect fill="#7FFF00" height="62.5938" rx="5" ry="5" style="stroke:#000000;stroke-width:1.5;" width="119" x="402.5" y="140.5"/><rect fill="#7FFF00" height="10" style="stroke:#000000;stroke-width:1.5;" width="15" x="501.5" y="145.5"/><rect fill="#7FFF00" height="2" style="stroke:#000000;stroke-width:1.5;" width="4" x="499.5" y="147.5"/><rect fill="#7FFF00" height="2" style="stroke:#000000;stroke-width:1.5;" width="4" x="499.5" y="151.5"/><text fill="#000000" font-family="sans-serif" font-size="14" lengthAdjust="spacing" textLength="0" x="421.5" y="173.4951"/><text fill="#000000" font-family="sans-serif" font-size="14" font-style="italic" lengthAdjust="spacing" textLength="75" x="421.5" y="173.4951">websocket</text><text fill="#000000" font-family="sans-serif" font-size="14" font-weight="bold" lengthAdjust="spacing" textLength="43" x="433.5" y="189.792">client</text><text fill="#000000" font-family="sans-serif" font-size="14" lengthAdjust="spacing" textLength="0" x="480.5" y="189.792"/><!--MD5=[36a0fb3b920d2731ec683a5a5f5daac8]
entity server2--><rect fill="#7FFF00" height="62.5938" rx="5" ry="5" style="stroke:#000000;stroke-width:1.5;" width="120" x="402" y="42.5"/><rect fill="#7FFF00" height="10" style="stroke:#000000;stroke-width:1.5;" width="15" x="502" y="47.5"/><rect fill="#7FFF00" height="2" style="stroke:#000000;stroke-width:1.5;" width="4" x="500" y="49.5"/><rect fill="#7FFF00" height="2" style="stroke:#000000;stroke-width:1.5;" width="4" x="500" y="53.5"/><text fill="#000000" font-family="sans-serif" font-size="14" lengthAdjust="spacing" textLength="76" x="421" y="75.4951">websocket</text><text fill="#000000" font-family="sans-serif" font-size="14" font-weight="bold" lengthAdjust="spacing" textLength="52" x="429" y="91.792">server</text><text fill="#000000" font-family="sans-serif" font-size="14" lengthAdjust="spacing" textLength="0" x="485" y="91.792"/><!--MD5=[2070200cdb767c5b844c435ba56ba8ba]
entity client3--><rect fill="#7FFF00" height="62.5938" rx="5" ry="5" style="stroke:#000000;stroke-width:1.5;" width="119" x="402.5" y="511.5"/><rect fill="#7FFF00" height="10" style="stroke:#000000;stroke-width:1.5;" width="15" x="501.5" y="516.5"/><rect fill="#7FFF00" height="2" style="stroke:#000000;stroke-width:1.5;" width="4" x="499.5" y="518.5"/><rect fill="#7FFF00" height="2" style="stroke:#000000;stroke-width:1.5;" width="4" x="499.5" y="522.5"/><text fill="#000000" font-family="sans-serif" font-size="14" lengthAdjust="spacing" textLength="0" x="421.5" y="544.4951"/><text fill="#000000" font-family="sans-serif" font-size="14" font-style="italic" lengthAdjust="spacing" textLength="75" x="421.5" y="544.4951">websocket</text><text fill="#000000" font-family="sans-serif" font-size="14" font-weight="bold" lengthAdjust="spacing" textLength="43" x="433.5" y="560.792">client</text><text fill="#000000" font-family="sans-serif" font-size="14" lengthAdjust="spacing" textLength="0" x="480.5" y="560.792"/><!--MD5=[03e800437cff674885281e885373ee45]
entity server3--><rect fill="#7FFF00" height="62.5938" rx="5" ry="5" style="stroke:#000000;stroke-width:1.5;" width="120" x="402" y="413.5"/><rect fill="#7FFF00" height="10" style="stroke:#000000;stroke-width:1.5;" width="15" x="502" y="418.5"/><rect fill="#7FFF00" height="2" style="stroke:#000000;stroke-width:1.5;" width="4" x="500" y="420.5"/><rect fill="#7FFF00" height="2" style="stroke:#000000;stroke-width:1.5;" width="4" x="500" y="424.5"/><text fill="#000000" font-family="sans-serif" font-size="14" lengthAdjust="spacing" textLength="76" x="421" y="446.4951">websocket</text><text fill="#000000" font-family="sans-serif" font-size="14" font-weight="bold" lengthAdjust="spacing" textLength="52" x="429" y="462.792">server</text><text fill="#000000" font-family="sans-serif" font-size="14" lengthAdjust="spacing" textLength="0" x="485" y="462.792"/><!--MD5=[43ceae362fcb36fbf9c8b9fb521d9c3e]
link client1 to server2--><path d="M126.3638,228.2036 C140.8331,218.2522 157.2799,207.6276 173,199 C247.1136,158.3245 337.152,121.1753 396.8268,98.1363 " fill="none" id="client1-to-server2" style="stroke:#20B2AA;stroke-width:3.0;"/><polygon fill="#20B2AA" points="401.7866,96.227,391.9504,95.7277,397.1205,98.0234,394.8247,103.1935,401.7866,96.227" style="stroke:#20B2AA;stroke-width:3.0;"/><text fill="#9ACD32" font-family="sans-serif" font-size="13" font-weight="bold" lengthAdjust="spacing" textLength="36" x="236" y="146.0669">myip</text><!--MD5=[cdd3fa967602eff513ef5844ebbd7e99]
link client1 to server3--><path d="M142.6357,289.1098 C211.8874,322.9134 325.7228,378.4795 397.132,413.3362 " fill="none" id="client1-to-server3" style="stroke:#20B2AA;stroke-width:3.0;"/><polygon fill="#20B2AA" points="401.7733,415.6018,395.44,408.0593,397.28,413.4085,391.9308,415.2485,401.7733,415.6018" style="stroke:#20B2AA;stroke-width:3.0;"/><text fill="#9ACD32" font-family="sans-serif" font-size="13" font-weight="bold" lengthAdjust="spacing" textLength="36" x="236" y="331.0669">myip</text><!--MD5=[643bbd510782f56222fc4c1a55890b0d]
link client2 to server1--><path d="M402.2273,201.3344 C332.9052,235.3552 219.042,291.2353 147.691,326.2519 " fill="none" id="client2-to-server1" style="stroke:#20B2AA;stroke-width:3.0;"/><polygon fill="#20B2AA" points="143.0537,328.5277,152.8954,328.1535,147.5423,326.3249,149.371,320.9718,143.0537,328.5277" style="stroke:#20B2AA;stroke-width:3.0;"/><text fill="#9ACD32" font-family="sans-serif" font-size="13" font-weight="bold" lengthAdjust="spacing" textLength="36" x="236" y="261.0669">myip</text><!--MD5=[43a461bd9a053d96d45e6965ef7da4a3]
link client2 to server3--><path d="M462,203.7201 C462,254.6603 462,354.4358 462,408.346 " fill="none" id="client2-to-server3" style="stroke:#20B2AA;stroke-width:3.0;"/><polygon fill="#20B2AA" points="462,413.4167,466,404.4167,462,408.4167,458,404.4167,462,413.4167" style="stroke:#20B2AA;stroke-width:3.0;"/><text fill="#9ACD32" font-family="sans-serif" font-size="13" font-weight="bold" lengthAdjust="spacing" textLength="36" x="432.5" y="313.0669">myip</text><!--MD5=[bdfc519dbd2ccf1f5d009f9f47efd0e5]
link client3 to server1--><path d="M402.2273,513.8233 C332.9052,479.9854 219.042,424.4057 147.691,389.5774 " fill="none" id="client3-to-server1" style="stroke:#20B2AA;stroke-width:3.0;"/><polygon fill="#20B2AA" points="143.0537,387.3138,149.387,394.8563,147.547,389.5071,152.8962,387.6671,143.0537,387.3138" style="stroke:#20B2AA;stroke-width:3.0;"/><text fill="#9ACD32" font-family="sans-serif" font-size="13" font-weight="bold" lengthAdjust="spacing" textLength="36" x="236" y="429.0669">myip</text><!--MD5=[c0f964f597499c917c928a6678ca9403]
link client3 to server2--><path d="M402.4704,511.8217 C396.1954,506.5697 390.4825,500.6341 386,494 C341.2747,427.8069 359.5899,397.0253 352,317.5 C344.7634,241.6761 355.8222,167.7133 386,123 C389.362,118.0186 393.418,113.4313 397.8853,109.2316 " fill="none" id="client3-to-server2" style="stroke:#20B2AA;stroke-width:3.0;"/><polygon fill="#20B2AA" points="401.7282,105.7949,392.353,108.8126,398.0011,109.1279,397.6858,114.7759,401.7282,105.7949" style="stroke:#20B2AA;stroke-width:3.0;"/><text fill="#9ACD32" font-family="sans-serif" font-size="13" font-weight="bold" lengthAdjust="spacing" textLength="36" x="335" y="313.5669">myip</text><text fill="#888888" font-family="sans-serif" font-size="10" lengthAdjust="spacing" textLength="0" x="532" y="605.2822"/><text fill="#888888" font-family="sans-serif" font-size="10" font-style="italic" lengthAdjust="spacing" textLength="84" x="448" y="616.9229">18.01.2021 10:21</text><!--MD5=[006bf36f0cbf40a5da64cbc4ed4b9fb3]
@startuml

!include adminip.iuml
!include footer.iuml

!procedure $createsite($nu,$ville)
!local $sit = $ville
!local $lserver = "server" + $nu
!local $lclient = "client" + $nu
card $sit  {
  rectangle  {
    [ //websocket//\n**client** ] as $lclient
    [ websocket\n**server** ] as $lserver
  }
}
!endprocedure

$createsite(1,"bordeaux")
$createsite(2,"Rosny-sous-Bois")
$createsite(3,"toulouse")

client1 - - - -> server2 :myip
client1 - - - -> server3 :myip
client2 - - -> server1 :myip
client2 - - - -> server3 :myip
client3 - - -> server1 :myip
client3 - - - -> server2 :myip

@enduml

@startuml

skinparam pageMargin 10
skinparam pageExternalColor gray
skinparam pageBorderColor black

skinparam backgroundcolor #ffffff11
skinparam ArrowThickness 3
skinparam ArrowColor LightSeaGreen
skinparam ArrowFontColor YellowGreen
skinparam ArrowFontStyle bold
skinparam actorStyle awesome
skinparam roundCorner 10
skinparam Shadowing false
skinparam componentStyle uml2
skinparam DefaultTextAlignment center

skinparam rectangle {
    roundCorner 0
    Shadowing false
    BackgroundColor TECHNOLOGY
    BorderColor Grey
}
skinparam component {
    Shadowing false
    BackgroundColor Chartreuse
    BorderColor Black
}
skinparam card {
    BackgroundColor White
}

skinparam ActorFontColor LightSkyBlue
skinparam ActorFontStyle bold
skinparam actor {
    BackgroundColor LightSkyBlue
    BorderColor MediumBlue
}
left to right direction

right footer \n//18.01.2021 10:21//


card bordeaux  {
  rectangle  {
    [ //websocket//\n**client** ] as client1
    [ websocket\n**server** ] as server1
  }
}
card Rosny-sous-Bois  {
  rectangle  {
    [ //websocket//\n**client** ] as client2
    [ websocket\n**server** ] as server2
  }
}
card toulouse  {
  rectangle  {
    [ //websocket//\n**client** ] as client3
    [ websocket\n**server** ] as server3
  }
}

client1 - - - -> server2 :myip
client1 - - - -> server3 :myip
client2 - - -> server1 :myip
client2 - - - -> server3 :myip
client3 - - -> server1 :myip
client3 - - - -> server2 :myip

@enduml

PlantUML version 1.2021.00(Sun Jan 10 10:25:05 UTC 2021)
(GPL source distribution)
Java Runtime: OpenJDK Runtime Environment
JVM: OpenJDK 64-Bit Server VM
Default Encoding: UTF-8
Language: en
Country: US
--></g></svg>